[
    {
        "question":"Co jeśli wyląduję przed czasem lub mój lot będzie opóźniony?",
        "answer":"Dzięki naszej usłudze „Spotkanie z kierowcą” możesz udostępnić nam numer swojego lotu podczas dokonywania rezerwacji taksówki lotniskowej, co pozwoli nam monitorować Twój lot i automatycznie dostosować godzinę odbioru. Po wylądowaniu kierowca będzie na Ciebie czekał przez 45 minut. Tyle czasu powinno Ci wystarczyć na przejście kontroli bezpieczeństwa, odbiór bagażu oraz przejście do hali przylotów i spotkanie z kierowcą."
    },
    {
        "question":"Co jest wliczone w cenę?",
        "answer":"Nasze ceny obejmują podatki, opłaty, opłatę za obsługę oraz opłaty drogowe. W przypadku rezerwacji odbioru z lotniska w cenę wliczona jest usługa „Spotkanie z kierowcą”, dzięki której kierowca będzie mógł monitorować Twój lot oraz zaczekać na Ciebie 45 minut od momentu wylądowania. W przypadku rezerwacji transportu na lotnisko lub jakiegokolwiek innego odbioru kierowca będzie na Ciebie czekał przez 15 minut od ustalonej godziny odbioru. Pamiętaj, że niektóre życzenia specjalne lub zmiany w rezerwacji mogą wiązać się z dodatkowymi kosztami."
    },
    {
        "question":"Jak mogę zapłacić?",
        "answer":"Opłata za przejazd taksówką lotniskową zostanie pobrana online po zakończeniu przejazdu. Oznacza to, że z wyprzedzeniem zajmiemy się potwierdzeniem i dokonaniem płatności, dzięki czemu nie musisz się niczym martwić ani pamiętać o posiadaniu gotówki. Obecnie akceptujemy karty Visa, American Express oraz Mastercard, jak i większość głównych kart debetowych. Akceptujemy również płatność za pośrednictwem PayPala."
    },
    {
        "question":"Czy mogę odwołać rezerwację?",
        "answer":"Tak. Zawsze możesz bezpłatnie odwołać rezerwację do 24 godzin przed ustaloną godziną odbioru. Niektórzy nasi partnerzy umożliwiają bezpłatne odwołanie w jeszcze krótszym terminie przed godziną odbioru. Więcej informacji znajdziesz w potwierdzeniu rezerwacji."
    }
    
]