[
    {
        "place":"Morze Bałtyckie",
        "hotels":"11 543 obiektów",
        "imgPath":"https://cf.bstatic.com/xdata/images/region/square250/49621.webp?k=c3e7e53d82053f92e2843891fff6b3c2a34d437ccd59e2a2498f971718a09419&o="
    },
    {
        "place":"Gdańsk",
        "hotels":"782 004 hoteli",
        "imgPath":"https://cf.bstatic.com/xdata/images/city/square250/972788.webp?k=17f14338090f7f5bbad0443f01a24aed1e17bfc4cee5c0b0c16c0cad94146f05&o="
    },
    {
        "place":"Zakopane",
        "hotels":"782 004 hoteli",
        "imgPath":"https://cf.bstatic.com/xdata/images/city/square250/653109.webp?k=39834303d6af8adc39cc8218ea8efc5291a013bd3228d53a50cb836833f4777f&o="
    },
    {
        "place":"Sopot",
        "hotels":"782 004 hoteli",
        "imgPath":"https://cf.bstatic.com/xdata/images/city/square250/653008.webp?k=ca5d31f45c4605d8c4905782f6bb5bac98514ebcc254868ee7073222b88a5baf&o="
    },
    {
        "place":"Mazury",
        "hotels":"782 004 hoteli",
        "imgPath":"https://cf.bstatic.com/xdata/images/region/square250/68006.webp?k=9401582d432d9fced32a37d0d7eb974e858436dffc038c73f87f305d6982f1dc&o="
    },
    {
        "place":"Kraków",
        "hotels":"4 091 obiektów",
        "imgPath":"https://cf.bstatic.com/xdata/images/city/square250/652924.webp?k=f0a48e91f55098e6d16a361a0d7ba12726a056ff85f92ff616af0feb388024da&o="
    },
    {
        "place":"Kołobrzeg",
        "hotels":"1 576 obiektów",
        "imgPath":"https://cf.bstatic.com/xdata/images/city/square250/652903.webp?k=4e9618ab0e4cee49da17679c1f4a8ea2df89cfded308eda2f86f590dd52e2802&o="
    }
]